<?xml version="1.0" encoding="UTF-8"?>
<robot generator="Robot 7.0.1 (Python 3.13.7 on win32)" generated="2025-09-18T12:38:47.204055" rpa="false" schemaversion="5">
<suite id="s1" name="Reqres Tests" source="C:\Users\Public\SpaceWork\api-tests\tests\reqres_tests.robot">
<test id="s1-t1" name="GET - Listar usuários página 2" line="6">
<kw name="Create Reqres Session" owner="reqres_resource" type="SETUP">
<kw name="Create Session" owner="RequestsLibrary">
<msg time="2025-09-18T12:38:47.682043" level="INFO">Creating Session using : alias=reqres, url=https://reqres.in, headers={'Accept': 'application/json'},                     cookies={}, auth=None, timeout=None, proxies=None, verify=True,                     debug=0 </msg>
<arg>reqres</arg>
<arg>${BASE_URL}</arg>
<arg>headers={"Accept":"application/json"}</arg>
<arg>verify=${True}</arg>
<doc>Create Session: create a HTTP session to a server</doc>
<status status="PASS" start="2025-09-18T12:38:47.461347" elapsed="0.221428"/>
</kw>
<status status="PASS" start="2025-09-18T12:38:47.460497" elapsed="0.222686"/>
</kw>
<kw name="Create Dictionary" owner="BuiltIn">
<msg time="2025-09-18T12:38:47.688802" level="INFO">&amp;{params} = { page=2 }</msg>
<var>&amp;{params}</var>
<arg>page=2</arg>
<doc>Creates and returns a dictionary based on the given ``items``.</doc>
<status status="PASS" start="2025-09-18T12:38:47.685361" elapsed="0.003571"/>
</kw>
<kw name="GET On Session" owner="RequestsLibrary">
<msg time="2025-09-18T12:38:50.032299" level="INFO">GET Request : url=https://reqres.in/api/users?page=2 
 path_url=/api/users?page=2 
 headers={'User-Agent': 'python-requests/2.32.5', 'Accept-Encoding': 'gzip, deflate', 'Accept': 'application/json', 'Connection': 'keep-alive'} 
 body=None 
 </msg>
<msg time="2025-09-18T12:38:50.032555" level="INFO">GET Response : url=https://reqres.in/api/users?page=2 
 status=200, reason=OK 
 headers={'Date': 'Thu, 18 Sep 2025 15:38:50 GMT', 'Content-Type': 'application/json; charset=utf-8', 'Transfer-Encoding': 'chunked', 'Connection': 'keep-alive', 'Content-Encoding': 'gzip', 'Access-Control-Allow-Credentials': 'true', 'Access-Control-Allow-Headers': 'Origin, X-Requested-With, Content-Type, Accept, Authorization, x-api-key', 'Access-Control-Allow-Methods': 'GET, POST, PUT, DELETE, OPTIONS', 'Access-Control-Allow-Origin': 'http://localhost:5173', 'Etag': 'W/"440-ZjsmMKR8P3usr2uJZbOCGCxC3Uw"', 'Nel': '{"report_to":"heroku-nel","response_headers":["Via"],"max_age":3600,"success_fraction":0.01,"failure_fraction":0.1}', 'Ratelimit-Limit': '100', 'Ratelimit-Policy': '100;w=60', 'Ratelimit-Remaining': '98', 'Ratelimit-Reset': '60', 'Referrer-Policy': 'strict-origin-when-cross-origin', 'Report-To': '{"group":"heroku-nel","endpoints":[{"url":"https://nel.heroku.com/reports?s=bsFk9Xu8ehmLPIMj%2Fiv9TCLwatIf76xrvCl3Sx9ZGPI%3D\\u0026sid=c4c9725f-1ab0-44d8-820f-430df2718e11\\u0026ts=1758209121"}],"max_age":3600}', 'Reporting-Endpoints': 'heroku-nel="https://nel.heroku.com/reports?s=bsFk9Xu8ehmLPIMj%2Fiv9TCLwatIf76xrvCl3Sx9ZGPI%3D&amp;sid=c4c9725f-1ab0-44d8-820f-430df2718e11&amp;ts=1758209121"', 'Vary': 'Origin, Accept-Encoding', 'Via': '1.1 heroku-router', 'X-Content-Type-Options': 'nosniff', 'X-Frame-Options': 'DENY', 'X-Request-Id': 'ddcba735-b677-d11a-493b-326ad3e7cb60', 'X-Xss-Protection': '1; mode=block', 'Age': '808', 'Cache-Control': 'max-age=14400', 'cf-cache-status': 'HIT', 'Server': 'cloudflare', 'CF-RAY': '9811eebfada4794f-GRU', 'server-timing': 'cfL4;desc="?proto=TCP&amp;rtt=174305&amp;min_rtt=30222&amp;rtt_var=99545&amp;sent=4&amp;recv=6&amp;lost=0&amp;retrans=0&amp;sent_bytes=2831&amp;recv_bytes=788&amp;delivery_rate=96088&amp;cwnd=251&amp;unsent_bytes=0&amp;cid=aadfe3065e1089ce&amp;ts=101&amp;x=0"'} 
 body={"page":2,"per_page":6,"total":12,"total_pages":2,"data":[{"id":7,"email":"michael.lawson@reqres.in","first_name":"Michael","last_name":"Lawson","avatar":"https://reqres.in/img/faces/7-image.jpg"},{"id":8,"email":"lindsay.ferguson@reqres.in","first_name":"Lindsay","last_name":"Ferguson","avatar":"https://reqres.in/img/faces/8-image.jpg"},{"id":9,"email":"tobias.funke@reqres.in","first_name":"Tobias","last_name":"Funke","avatar":"https://reqres.in/img/faces/9-image.jpg"},{"id":10,"email":"byron.fields@reqres.in","first_name":"Byron","last_name":"Fields","avatar":"https://reqres.in/img/faces/10-image.jpg"},{"id":11,"email":"george.edwards@reqres.in","first_name":"George","last_name":"Edwards","avatar":"https://reqres.in/img/faces/11-image.jpg"},{"id":12,"email":"rachel.howell@reqres.in","first_name":"Rachel","last_name":"Howell","avatar":"https://reqres.in/img/faces/12-image.jpg"}],"support":{"url":"https://contentcaddy.io?utm_source=reqres&amp;utm_medium=json&amp;utm_campaign=referral","text":"Tired of writing endless social media content? Let Content Caddy generate it for you."}} 
 </msg>
<msg time="2025-09-18T12:38:50.032787" level="INFO">${resp} = &lt;Response [200]&gt;</msg>
<var>${resp}</var>
<arg>reqres</arg>
<arg>${USERS_PATH}</arg>
<arg>params=${params}</arg>
<doc>Sends a GET request on a previously created HTTP Session.</doc>
<status status="PASS" start="2025-09-18T12:38:47.690599" elapsed="2.342242"/>
</kw>
<kw name="Should Be Equal As Integers" owner="BuiltIn">
<msg time="2025-09-18T12:38:50.034644" level="INFO">Argument types are:
&lt;class 'int'&gt;
&lt;class 'str'&gt;</msg>
<arg>${resp.status_code}</arg>
<arg>200</arg>
<doc>Fails if objects are unequal after converting them to integers.</doc>
<status status="PASS" start="2025-09-18T12:38:50.033859" elapsed="0.000881"/>
</kw>
<kw name="Dictionary Should Contain Key" owner="Collections">
<arg>${resp.json()}</arg>
<arg>data</arg>
<doc>Fails if ``key`` is not found from ``dictionary``.</doc>
<status status="PASS" start="2025-09-18T12:38:50.035385" elapsed="0.000826"/>
</kw>
<kw name="Should Not Be Empty" owner="BuiltIn">
<msg time="2025-09-18T12:38:50.037981" level="INFO">Length is 6.</msg>
<arg>${resp.json()["data"]}</arg>
<doc>Verifies that the given item is not empty.</doc>
<status status="PASS" start="2025-09-18T12:38:50.036735" elapsed="0.001396"/>
</kw>
<status status="PASS" start="2025-09-18T12:38:47.459436" elapsed="2.579509"/>
</test>
<status status="PASS" start="2025-09-18T12:38:47.208277" elapsed="2.834158"/>
</suite>
<statistics>
<total>
<stat pass="1" fail="0" skip="0">All Tests</stat>
</total>
<tag>
</tag>
<suite>
<stat pass="1" fail="0" skip="0" id="s1" name="Reqres Tests">Reqres Tests</stat>
</suite>
</statistics>
<errors>
</errors>
</robot>
